Fitting. Measurements · HetaSimulator.jl
…
The measurements file can be downloaded here: measurements.csv. The dataset includes C1 observable measurements with unknown variance.
The measurement table can be loaded into the Platform using read_measurements and add_measurements! functions.

measurements_df = read_measurements("./measurements.csv")

90×5 DataFrame
 Row │ t         measurement  prob.mean  prob.sigma  scenario 
     │ Float64   Float64      String     String      Symbol   
─────┼────────────────────────────────────────────────────────
   1 │  0.08333    0.0686283  C1         sigma1      dose_1
   2 │  0.08333    0.0684679  C1         sigma1      dose_1
  ⋮  │    ⋮           ⋮           ⋮          ⋮          ⋮
  89 │ 24.0        1.036      C1         sigma3      dose_100
  90 │ 24.0        0.724612   C1         sigma3      dose_100
                                               86 rows omitted
…
