Overview of HetaSimulator.jl · HetaSimulator Docs
…
push!(conditions(p), :multiple_100=>new_condition)
where multiple_100 is an identifier for the condition in the dictionary.
Creating measurements
Measurement in HetaSimulator is representation of experimentally measured value for parameter identification. Each Measurement is associated with some particular condition, observable value and fixed time point.
All measurements in the platform are used to calculate the log-likelihood function when required. Measurements are stored inside Condition objects.
Import from CSV tables
User can load measurement points from one or several tables which follow table format.
Create file measurements.csv file inside my_example with the following structure.
Full file can be downloaded from here: [measurements.csv](https://raw.githubusercontent.com/hetalang/hetasimulator/master/case/story3/measurements.csv)_
t|measurement|prob.mean|prob.sigma|condition –|–|–|–|– 0.08333|0.0686283|C1|sigma1|dose1 0.08333|0.0684679|C1|sigma1|dose1 0.08333|0.0726338|C1|sigma1|dose1 0.25|0.119397|C1|sigma1|dose1 0.25|0.137662|C1|sigma1|dose1 0.25|0.120412|C1|sigma1|dose1 0.5|0.131784|C1|sigma1|dose_1 ...|...|...|...|...
The table can be loaded with the read_measurements function.

measurements_df = read_measurements("./cases/story_3/measurements.csv")
90×5 DataFrame
 Row │ t         measurement  prob.mean  prob.sigma  condition 
     │ Float64   Float64      String     String      Symbol    
─────┼─────────────────────────────────────────────────────────
   1 │  0.08333    0.0686283  C1         sigma1      dose_1
   2 │  0.08333    0.0684679  C1         sigma1      dose_1
   3 │  0.08333    0.0726338  C1         sigma1      dose_1
   4 │  0.25       0.119397   C1         sigma1      dose_1
   5 │  0.25       0.137662   C1         sigma1      dose_1
  ⋮  │    ⋮           ⋮           ⋮          ⋮           ⋮
  87 │ 12.0        2.189      C1         sigma3      dose_100
  88 │ 24.0        0.877502   C1         sigma3      dose_100
  89 │ 24.0        1.036      C1         sigma3      dose_100
  90 │ 24.0        0.724612   C1         sigma3      dose_100
                                                81 rows omitted
…
The whole solution can also be translated into DataFrame.

res_df = DataFrame(res)

964×6 DataFrame
 Row │ t             A0           C1           C2           scope   condition   
     │ Float64       Float64      Float64      Float64      Symbol  Symbol      
─────┼──────────────────────────────────────────────────────────────────────────
   1 │  0.0           0.0         0.0          0.0          ode_    multiple_15
   2 │  0.0          15.0         0.0          0.0          sw2     multiple_15
  ⋮  │      ⋮             ⋮            ⋮            ⋮         ⋮          ⋮
 963 │ 47.9581        4.55058e-7  0.201956     0.2561       ode_    dose_100
 964 │ 48.0           2.99302e-7  0.201417     0.255416     ode_    dose_100
                                                                960 rows omitted
User can work with the solution component by using indexing by component number, like here res[1] or by condition id res[:dose_1].
Any component can also be transformed into DataFrame.

res_df1 = DataFrame(res[1])

626×5 DataFrame
 Row │ t              A0           C1           C2           scope  
     │ Float64        Float64      Float64      Float64      Symbol 
─────┼──────────────────────────────────────────────────────────────
   1 │   0.0           0.0         0.0          0.0          ode_
   2 │   0.0          15.0         0.0          0.0          sw2
   3 │   6.66622e-6   14.999       0.000158714  1.59703e-10  ode_
   4 │   7.33284e-5   14.989       0.00174523   1.93194e-8   ode_
   5 │   0.000739951  14.8894      0.0175482    1.96242e-6   ode_
   6 │   0.00527893   14.2287      0.122199     9.82366e-5   ode_
   7 │   0.0141793    13.017       0.313149     0.000686265  ode_
   8 │   0.027481     11.3957      0.566335     0.00245837   ode_
  ⋮  │       ⋮             ⋮            ⋮            ⋮         ⋮
 620 │ 166.734         4.55058e-7  0.193317     0.245144     ode_
 621 │ 167.085         4.55058e-7  0.189038     0.239719     ode_
 622 │ 167.436         4.55058e-7  0.184854     0.234413     ode_
 623 │ 167.786         4.55058e-7  0.180762     0.229224     ode_
 624 │ 168.0           7.00046e-8  0.178314     0.22612      ode_
 625 │ 168.0           7.00046e-8  0.178314     0.22612      ode_
 626 │ 168.0          15.0         0.178314     0.22612      sw2
                                                    611 rows omitted
…
mc_res = mc(p, [:kabs=>Normal(10.,1e-1), :kel=>Normal(0.2,1e-3)], 1000)

+---------------------------------------------------------------------------
| Monte-Carlo results for 4 condition(s).
| [:multiple_15 => ..., :dose_1 => ..., :dose_10 => ..., :dose_100 => ...]
| Use `sol[id]` to get component by id.
| Use `sol[i]` to get component by number.
| Use `DataFrame(sol)` to transform.
| Use `plot(sol)` to plot results.
+---------------------------------------------------------------------------
To transform everything into DataFrame

mc_df = DataFrame(mc_res)

998000×7 DataFrame
    Row │ iter   t             A0           C1           C2           scope   condition   
        │ Int64  Float64       Float64      Float64      Float64      Symbol  Symbol      
────────┼─────────────────────────────────────────────────────────────────────────────────
      1 │     1   0.0           0.0         0.0          0.0          ode_    multiple_15
      2 │     1   0.0          15.0         0.0          0.0          sw2     multiple_15
      3 │     1   6.66014e-6   14.999       0.000158714  1.59557e-10  ode_    multiple_15
   ⋮    │   ⋮         ⋮             ⋮            ⋮            ⋮         ⋮          ⋮
 997998 │  1000  47.5835        4.55058e-7  0.210559     0.266633     ode_    dose_100
 997999 │  1000  47.9215        4.55058e-7  0.206089     0.260971     ode_    dose_100
 998000 │  1000  48.0           2.01668e-7  0.205065     0.259675     ode_    dose_100
                                                                       997994 rows omitted
…
