…
The table can be loaded with the [`read_measurements`](@ref) function.

```julia
measurements_df = read_measurements("./cases/story_3/measurements.csv")
90×5 DataFrame
 Row │ t         measurement  prob.mean  prob.sigma  condition 
     │ Float64   Float64      String     String      Symbol    
─────┼─────────────────────────────────────────────────────────
   1 │  0.08333    0.0686283  C1         sigma1      dose_1
   2 │  0.08333    0.0684679  C1         sigma1      dose_1
   3 │  0.08333    0.0726338  C1         sigma1      dose_1
   4 │  0.25       0.119397   C1         sigma1      dose_1
   5 │  0.25       0.137662   C1         sigma1      dose_1
  ⋮  │    ⋮           ⋮           ⋮          ⋮           ⋮
  87 │ 12.0        2.189      C1         sigma3      dose_100
  88 │ 24.0        0.877502   C1         sigma3      dose_100
  89 │ 24.0        1.036      C1         sigma3      dose_100
  90 │ 24.0        0.724612   C1         sigma3      dose_100
                                                81 rows omitted
```
…
The whole solution can also be translated into `DataFrame`.

```julia
res_df = DataFrame(res)
```
```julia
1031×6 DataFrame
  Row │ t             A0            C1           C2           scope   condition   
      │ Float64       Float64       Float64      Float64      Symbol  Symbol      
──────┼───────────────────────────────────────────────────────────────────────────
    1 │  0.0           0.0          0.0          0.0          ode_    multiple_15
    2 │  0.0          15.0          0.0          0.0          sw2     multiple_15
    3 │  3.33311e-6   14.999        0.000158714  2.49537e-11  ode_    multiple_15
    4 │  3.66642e-5   14.989        0.00174525   3.0187e-9    ode_    multiple_15
  ⋮   │      ⋮             ⋮             ⋮            ⋮         ⋮          ⋮
 1029 │ 45.1252       -3.9532e-26   0.0292381    0.108637     ode_    dose_100
 1030 │ 47.5238        3.29325e-27  0.0247767    0.0920607    ode_    dose_100
 1031 │ 48.0          -6.75365e-28  0.0239764    0.089087     ode_    dose_100
                                                                 1024 rows omitted
```

User can work with the solution component by using indexing by component number, like here `res[1]` or by condition id `res[:dose_1]`.

Any component can also be transformed into `DataFrame`.

```julia
res_df1 = DataFrame(res[1])
```
```julia
702×6 DataFrame
 Row │ t              A0            C1           C2           scope   condition   
     │ Float64        Float64       Float64      Float64      Symbol  Symbol      
─────┼────────────────────────────────────────────────────────────────────────────
   1 │   0.0           0.0          0.0          0.0          ode_    multiple_15
   2 │   0.0          15.0          0.0          0.0          sw2     multiple_15
   3 │   3.33311e-6   14.999        0.000158714  2.49537e-11  ode_    multiple_15
   4 │   3.66642e-5   14.989        0.00174525   3.0187e-9    ode_    multiple_15
  ⋮  │       ⋮             ⋮             ⋮            ⋮         ⋮          ⋮
 700 │ 168.0           2.79899e-18  0.0232934    0.0865488    ode_    multiple_15
 701 │ 168.0           2.79899e-18  0.0232934    0.0865488    ode_    multiple_15
 702 │ 168.0          15.0          0.0232934    0.0865488    sw2     multiple_15
                                                                  695 rows omitted
```
…
To transform everything into `DataFrame`
```julia
mc_df = DataFrame(mc_res)
```
```julia
946000×7 DataFrame
    Row │ iter   t             A0           C1           C2           scope   condition   
        │ Int64  Float64       Float64      Float64      Float64      Symbol  Symbol      
────────┼─────────────────────────────────────────────────────────────────────────────────
      1 │     1   0.0           0.0         0.0          0.0          ode_    multiple_15 
      2 │     1   0.0          15.0         0.0          0.0          sw2     multiple_15
      3 │     1   6.67001e-6   14.999       0.000158714  4.99357e-11  ode_    multiple_15
      4 │     1   7.33701e-5   14.989       0.00174525   6.04082e-9   ode_    multiple_15
      5 │     1   0.000740371  14.8894      0.0175505    6.13689e-7   ode_    multiple_15
      6 │     1   0.00602741   14.1231      0.139042     3.99353e-5   ode_    multiple_15
   ⋮    │   ⋮         ⋮             ⋮            ⋮            ⋮         ⋮          ⋮
 945996 │  1000  46.6664        4.55058e-7  0.247023     0.484307     ode_    dose_100
 945997 │  1000  47.0172        4.55058e-7  0.243049     0.476516     ode_    dose_100
 945998 │  1000  47.3681        4.55059e-7  0.239139     0.46885      ode_    dose_100
 945999 │  1000  47.719         4.55058e-7  0.235292     0.461307     ode_    dose_100
 946000 │  1000  48.0           1.28404e-7  0.232256     0.455355     ode_    dose_100
                                                                       945989 rows omitted
```
…
