…
The results can be transformed into a `DataFrame` object for further analysis and saving.

```julia
# for all observables
res_df = DataFrame(res1)
```

```
315×5 DataFrame
 Row │ t             C1           C2           v_el          scope  
     │ Float64       Float64      Float64      Float64       Symbol 
─────┼──────────────────────────────────────────────────────────────
   1 │  0.0          0.0          0.0           0.0          start_
   2 │  0.0          0.0          0.0           0.0          ode_
   3 │  0.0          0.0          0.0           0.0          sw2
   4 │  4.99995e-7   0.000158728  3.74355e-12   0.000499992  ode_
  ⋮  │      ⋮             ⋮            ⋮            ⋮          ⋮
 312 │ 49.4347       6.63602      1.77171      20.9035       ode_
 313 │ 49.6571       5.79124      1.86371      18.2424       ode_
 314 │ 49.8827       5.05502      1.93842      15.9233       ode_
 315 │ 50.0          4.71407      1.97083      14.8493       ode_
                                                    307 rows omitted
```
…
