Monte-Carlo. Statistics calculation · HetaSimulator Docs
…
mcvecs = read_mcvecs("./params.csv")

100×3 DataFrame
 Row │ k1          k2           k3
     │ Float64     Float64      Float64     
─────┼──────────────────────────────────────
   1 │ 0.00904655  0.00109494   0.00938817
   2 │ 0.00342413  0.000952441  0.00274764
  ⋮  │     ⋮            ⋮            ⋮
 100 │ 0.00318838  0.00106162   0.000996487
                             97 rows omitted
…
