Scenario. Simulation · HetaSimulator Docs
…
The results can be transformed into DataFrame object for further modifications and saving.

# for all observables
res_df = DataFrame(res1)

91×5 DataFrame
 Row │ t            A0            C1           C2           scope  
     │ Float64      Float64       Float64      Float64      Symbol 
─────┼─────────────────────────────────────────────────────────────
   1 │  0.0          0.0          0.0          0.0          ode_
   2 │  0.0          1.0          0.0          0.0          sw1
  ⋮  │      ⋮            ⋮             ⋮            ⋮         ⋮
  90 │ 48.7368      -3.03066e-34  0.00022778   0.000846342  ode_
  91 │ 50.0          4.06546e-35  0.000208774  0.000775723  ode_
                                                    87 rows omitted
…
